<svg id="crown.svg" xmlns="http://www.w3.org/2000/svg" width="50" height="39" viewBox="0 0 50 39">
  <g id="Artboard" transform="translate(-90 -38)">
    <g id="Group" transform="translate(90 38)">
      <path id="Rectangle" d="M3,14,25,26.5,47,14,40.855,39H9.084Z" fill="#808282" fill-rule="evenodd"/>
      <path id="Triangle" d="M25,8,40,39H10Z" fill="rgba(16,26,26,0.26)" fill-rule="evenodd"/>
      <circle id="Oval" cx="2" cy="2" r="2" transform="translate(0 7)" fill="#5e6363"/>
      <circle id="Oval-2" data-name="Oval" cx="2" cy="2" r="2" transform="translate(23)" fill="#5e6363"/>
      <circle id="Oval-3" data-name="Oval" cx="2" cy="2" r="2" transform="translate(46 7)" fill="#5e6363"/>
    </g>
  </g>
</svg>
